[{
        "id": 1,
        "subject": "Reviewed 1. Lorem ipsum dolor",
        "shortDesc": "Donec id elit non mi porta gravida at eget metus. Maecenas sed diam eget risus varius blandit.",
        "type": "Email",
        "status": "reviewed",
        "body": "What is Lorem Ipsum? Lorem Ipsum is simply dummy text of the printing and typesetting industry. Lorem Ipsum has been the industry's standard dummy text ever since the 1500s, when an unknown printer took a galley of type and scrambled it to make a type specimen book. It has survived not only five centuries, but also the leap into electronic typesetting, remaining essentially unchanged. It was popularised in the 1960s with the release of Letraset sheets containing Lorem Ipsum passages, and more recently with desktop publishing software like Aldus PageMaker including versions of Lorem Ipsum.",
        "score": 50,
        "relevantStatus": false
    },
    {
        "id": 2,
        "subject": "Reviewed 2. Lorem ipsum dolor",
        "shortDesc": "Donec id elit non mi porta gravida at eget metus. Maecenas sed diam eget risus varius blandit.",
        "type": "Email",
        "status": "reviewed",
        "body": "What is Lorem Ipsum? Lorem Ipsum is simply dummy text of the printing and typesetting industry. Lorem Ipsum has been the industry's standard dummy text ever since the 1500s, when an unknown printer took a galley of type and scrambled it to make a type specimen book. It has survived not only five centuries, but also the leap into electronic typesetting, remaining essentially unchanged. It was popularised in the 1960s with the release of Letraset sheets containing Lorem Ipsum passages, and more recently with desktop publishing software like Aldus PageMaker including versions of Lorem Ipsum.",
        "score": 50,
        "relevantStatus": false
    },
    {
        "id": 3,
        "subject": "Reviewed 3. Lorem ipsum dolor",
        "shortDesc": "Donec id elit non mi porta gravida at eget metus. Maecenas sed diam eget risus varius blandit.",
        "type": "Email",
        "status": "reviewed",
        "body": "What is Lorem Ipsum? Lorem Ipsum is simply dummy text of the printing and typesetting industry. Lorem Ipsum has been the industry's standard dummy text ever since the 1500s, when an unknown printer took a galley of type and scrambled it to make a type specimen book. It has survived not only five centuries, but also the leap into electronic typesetting, remaining essentially unchanged. It was popularised in the 1960s with the release of Letraset sheets containing Lorem Ipsum passages, and more recently with desktop publishing software like Aldus PageMaker including versions of Lorem Ipsum.",
        "score": 50,
        "relevantStatus": false
    },
    {
        "id": 4,
        "subject": "Reviewed 4. Lorem ipsum dolor",
        "shortDesc": "Donec id elit non mi porta gravida at eget metus. Maecenas sed diam eget risus varius blandit.",
        "type": "Email",
        "status": "reviewed",
        "body": "What is Lorem Ipsum? Lorem Ipsum is simply dummy text of the printing and typesetting industry. Lorem Ipsum has been the industry's standard dummy text ever since the 1500s, when an unknown printer took a galley of type and scrambled it to make a type specimen book. It has survived not only five centuries, but also the leap into electronic typesetting, remaining essentially unchanged. It was popularised in the 1960s with the release of Letraset sheets containing Lorem Ipsum passages, and more recently with desktop publishing software like Aldus PageMaker including versions of Lorem Ipsum.",
        "score": 50,
        "relevantStatus": false
    },
    {
        "id": 5,
        "subject": "Reviewed 5. Lorem ipsum dolor",
        "shortDesc": "Donec id elit non mi porta gravida at eget metus. Maecenas sed diam eget risus varius blandit.",
        "type": "Email",
        "status": "reviewed",
        "body": "What is Lorem Ipsum? Lorem Ipsum is simply dummy text of the printing and typesetting industry. Lorem Ipsum has been the industry's standard dummy text ever since the 1500s, when an unknown printer took a galley of type and scrambled it to make a type specimen book. It has survived not only five centuries, but also the leap into electronic typesetting, remaining essentially unchanged. It was popularised in the 1960s with the release of Letraset sheets containing Lorem Ipsum passages, and more recently with desktop publishing software like Aldus PageMaker including versions of Lorem Ipsum.",
        "score": 50,
        "relevantStatus": false
    },
    {
        "id": 6,
        "subject": "Reviewed 6. Lorem ipsum dolor",
        "shortDesc": "Donec id elit non mi porta gravida at eget metus. Maecenas sed diam eget risus varius blandit.",
        "type": "Email",
        "status": "reviewed",
        "body": "What is Lorem Ipsum? Lorem Ipsum is simply dummy text of the printing and typesetting industry. Lorem Ipsum has been the industry's standard dummy text ever since the 1500s, when an unknown printer took a galley of type and scrambled it to make a type specimen book. It has survived not only five centuries, but also the leap into electronic typesetting, remaining essentially unchanged. It was popularised in the 1960s with the release of Letraset sheets containing Lorem Ipsum passages, and more recently with desktop publishing software like Aldus PageMaker including versions of Lorem Ipsum.",
        "score": 50,
        "relevantStatus": false
    },
    {
        "id": 7,
        "subject": "Reviewed 7. Lorem ipsum dolor",
        "shortDesc": "Donec id elit non mi porta gravida at eget metus. Maecenas sed diam eget risus varius blandit.",
        "type": "Email",
        "status": "reviewed",
        "body": "What is Lorem Ipsum? Lorem Ipsum is simply dummy text of the printing and typesetting industry. Lorem Ipsum has been the industry's standard dummy text ever since the 1500s, when an unknown printer took a galley of type and scrambled it to make a type specimen book. It has survived not only five centuries, but also the leap into electronic typesetting, remaining essentially unchanged. It was popularised in the 1960s with the release of Letraset sheets containing Lorem Ipsum passages, and more recently with desktop publishing software like Aldus PageMaker including versions of Lorem Ipsum.",
        "score": 50,
        "relevantStatus": false
    },
    {
        "id": 8,
        "subject": "Reviewed 8. Lorem ipsum dolor",
        "shortDesc": "Donec id elit non mi porta gravida at eget metus. Maecenas sed diam eget risus varius blandit.",
        "type": "Email",
        "status": "reviewed",
        "body": "What is Lorem Ipsum? Lorem Ipsum is simply dummy text of the printing and typesetting industry. Lorem Ipsum has been the industry's standard dummy text ever since the 1500s, when an unknown printer took a galley of type and scrambled it to make a type specimen book. It has survived not only five centuries, but also the leap into electronic typesetting, remaining essentially unchanged. It was popularised in the 1960s with the release of Letraset sheets containing Lorem Ipsum passages, and more recently with desktop publishing software like Aldus PageMaker including versions of Lorem Ipsum.",
        "score": 50,
        "relevantStatus": false
    },
    {
        "id": 9,
        "subject": "Reviewed 9. Lorem ipsum dolor",
        "shortDesc": "Donec id elit non mi porta gravida at eget metus. Maecenas sed diam eget risus varius blandit.",
        "type": "Email",
        "status": "reviewed",
        "body": "What is Lorem Ipsum? Lorem Ipsum is simply dummy text of the printing and typesetting industry. Lorem Ipsum has been the industry's standard dummy text ever since the 1500s, when an unknown printer took a galley of type and scrambled it to make a type specimen book. It has survived not only five centuries, but also the leap into electronic typesetting, remaining essentially unchanged. It was popularised in the 1960s with the release of Letraset sheets containing Lorem Ipsum passages, and more recently with desktop publishing software like Aldus PageMaker including versions of Lorem Ipsum.",
        "score": 50,
        "relevantStatus": false
    },
    {
        "id": 10,
        "subject": "Reviewed 10. Lorem ipsum dolor",
        "shortDesc": "Donec id elit non mi porta gravida at eget metus. Maecenas sed diam eget risus varius blandit.",
        "type": "Email",
        "status": "reviewed",
        "body": "What is Lorem Ipsum? Lorem Ipsum is simply dummy text of the printing and typesetting industry. Lorem Ipsum has been the industry's standard dummy text ever since the 1500s, when an unknown printer took a galley of type and scrambled it to make a type specimen book. It has survived not only five centuries, but also the leap into electronic typesetting, remaining essentially unchanged. It was popularised in the 1960s with the release of Letraset sheets containing Lorem Ipsum passages, and more recently with desktop publishing software like Aldus PageMaker including versions of Lorem Ipsum.",
        "score": 50,
        "relevantStatus": false
    },
    {
        "id": 11,
        "subject": "Reviewed 11. Lorem ipsum dolor",
        "shortDesc": "Donec id elit non mi porta gravida at eget metus. Maecenas sed diam eget risus varius blandit.",
        "type": "Email",
        "status": "reviewed",
        "body": "What is Lorem Ipsum? Lorem Ipsum is simply dummy text of the printing and typesetting industry. Lorem Ipsum has been the industry's standard dummy text ever since the 1500s, when an unknown printer took a galley of type and scrambled it to make a type specimen book. It has survived not only five centuries, but also the leap into electronic typesetting, remaining essentially unchanged. It was popularised in the 1960s with the release of Letraset sheets containing Lorem Ipsum passages, and more recently with desktop publishing software like Aldus PageMaker including versions of Lorem Ipsum.",
        "score": 50,
        "relevantStatus": false
    },
    {
        "id": 12,
        "subject": "Reviewed 12. Lorem ipsum dolor",
        "shortDesc": "Donec id elit non mi porta gravida at eget metus. Maecenas sed diam eget risus varius blandit.",
        "type": "Email",
        "status": "reviewed",
        "body": "What is Lorem Ipsum? Lorem Ipsum is simply dummy text of the printing and typesetting industry. Lorem Ipsum has been the industry's standard dummy text ever since the 1500s, when an unknown printer took a galley of type and scrambled it to make a type specimen book. It has survived not only five centuries, but also the leap into electronic typesetting, remaining essentially unchanged. It was popularised in the 1960s with the release of Letraset sheets containing Lorem Ipsum passages, and more recently with desktop publishing software like Aldus PageMaker including versions of Lorem Ipsum.",
        "score": 50,
        "relevantStatus": false
    },
    {
        "id": 13,
        "subject": "Reviewed 13. Lorem ipsum dolor",
        "shortDesc": "Donec id elit non mi porta gravida at eget metus. Maecenas sed diam eget risus varius blandit.",
        "type": "Email",
        "status": "reviewed",
        "body": "What is Lorem Ipsum? Lorem Ipsum is simply dummy text of the printing and typesetting industry. Lorem Ipsum has been the industry's standard dummy text ever since the 1500s, when an unknown printer took a galley of type and scrambled it to make a type specimen book. It has survived not only five centuries, but also the leap into electronic typesetting, remaining essentially unchanged. It was popularised in the 1960s with the release of Letraset sheets containing Lorem Ipsum passages, and more recently with desktop publishing software like Aldus PageMaker including versions of Lorem Ipsum.",
        "score": 50,
        "relevantStatus": false
    },
    {
        "id": 14,
        "subject": "Reviewed 14. Lorem ipsum dolor",
        "shortDesc": "Donec id elit non mi porta gravida at eget metus. Maecenas sed diam eget risus varius blandit.",
        "type": "Email",
        "status": "reviewed",
        "body": "What is Lorem Ipsum? Lorem Ipsum is simply dummy text of the printing and typesetting industry. Lorem Ipsum has been the industry's standard dummy text ever since the 1500s, when an unknown printer took a galley of type and scrambled it to make a type specimen book. It has survived not only five centuries, but also the leap into electronic typesetting, remaining essentially unchanged. It was popularised in the 1960s with the release of Letraset sheets containing Lorem Ipsum passages, and more recently with desktop publishing software like Aldus PageMaker including versions of Lorem Ipsum.",
        "score": 50,
        "relevantStatus": false
    },
    {
        "id": 15,
        "subject": "Reviewed 15. Lorem ipsum dolor",
        "shortDesc": "Donec id elit non mi porta gravida at eget metus. Maecenas sed diam eget risus varius blandit.",
        "type": "Email",
        "status": "reviewed",
        "body": "What is Lorem Ipsum? Lorem Ipsum is simply dummy text of the printing and typesetting industry. Lorem Ipsum has been the industry's standard dummy text ever since the 1500s, when an unknown printer took a galley of type and scrambled it to make a type specimen book. It has survived not only five centuries, but also the leap into electronic typesetting, remaining essentially unchanged. It was popularised in the 1960s with the release of Letraset sheets containing Lorem Ipsum passages, and more recently with desktop publishing software like Aldus PageMaker including versions of Lorem Ipsum.",
        "score": 50,
        "relevantStatus": false
    },
    {
        "id": 16,
        "subject": "Reviewed 16. Lorem ipsum dolor",
        "shortDesc": "Donec id elit non mi porta gravida at eget metus. Maecenas sed diam eget risus varius blandit.",
        "type": "Email",
        "status": "reviewed",
        "body": "What is Lorem Ipsum? Lorem Ipsum is simply dummy text of the printing and typesetting industry. Lorem Ipsum has been the industry's standard dummy text ever since the 1500s, when an unknown printer took a galley of type and scrambled it to make a type specimen book. It has survived not only five centuries, but also the leap into electronic typesetting, remaining essentially unchanged. It was popularised in the 1960s with the release of Letraset sheets containing Lorem Ipsum passages, and more recently with desktop publishing software like Aldus PageMaker including versions of Lorem Ipsum.",
        "score": 50,
        "relevantStatus": false
    },
    {
        "id": 17,
        "subject": "Reviewed 17. Lorem ipsum dolor",
        "shortDesc": "Donec id elit non mi porta gravida at eget metus. Maecenas sed diam eget risus varius blandit.",
        "type": "Email",
        "status": "reviewed",
        "body": "What is Lorem Ipsum? Lorem Ipsum is simply dummy text of the printing and typesetting industry. Lorem Ipsum has been the industry's standard dummy text ever since the 1500s, when an unknown printer took a galley of type and scrambled it to make a type specimen book. It has survived not only five centuries, but also the leap into electronic typesetting, remaining essentially unchanged. It was popularised in the 1960s with the release of Letraset sheets containing Lorem Ipsum passages, and more recently with desktop publishing software like Aldus PageMaker including versions of Lorem Ipsum.",
        "score": 50,
        "relevantStatus": false
    },
    {
        "id": 18,
        "subject": "Reviewed 18. Lorem ipsum dolor",
        "shortDesc": "Donec id elit non mi porta gravida at eget metus. Maecenas sed diam eget risus varius blandit.",
        "type": "Email",
        "status": "reviewed",
        "body": "What is Lorem Ipsum? Lorem Ipsum is simply dummy text of the printing and typesetting industry. Lorem Ipsum has been the industry's standard dummy text ever since the 1500s, when an unknown printer took a galley of type and scrambled it to make a type specimen book. It has survived not only five centuries, but also the leap into electronic typesetting, remaining essentially unchanged. It was popularised in the 1960s with the release of Letraset sheets containing Lorem Ipsum passages, and more recently with desktop publishing software like Aldus PageMaker including versions of Lorem Ipsum.",
        "score": 50,
        "relevantStatus": false
    },
    {
        "id": 19,
        "subject": "Reviewed 19. Lorem ipsum dolor",
        "shortDesc": "Donec id elit non mi porta gravida at eget metus. Maecenas sed diam eget risus varius blandit.",
        "type": "Email",
        "status": "reviewed",
        "body": "What is Lorem Ipsum? Lorem Ipsum is simply dummy text of the printing and typesetting industry. Lorem Ipsum has been the industry's standard dummy text ever since the 1500s, when an unknown printer took a galley of type and scrambled it to make a type specimen book. It has survived not only five centuries, but also the leap into electronic typesetting, remaining essentially unchanged. It was popularised in the 1960s with the release of Letraset sheets containing Lorem Ipsum passages, and more recently with desktop publishing software like Aldus PageMaker including versions of Lorem Ipsum.",
        "score": 50,
        "relevantStatus": false
    },
    {
        "id": 20,
        "subject": "Reviewed 20. Lorem ipsum dolor",
        "shortDesc": "Donec id elit non mi porta gravida at eget metus. Maecenas sed diam eget risus varius blandit.",
        "type": "Email",
        "status": "reviewed",
        "body": "What is Lorem Ipsum? Lorem Ipsum is simply dummy text of the printing and typesetting industry. Lorem Ipsum has been the industry's standard dummy text ever since the 1500s, when an unknown printer took a galley of type and scrambled it to make a type specimen book. It has survived not only five centuries, but also the leap into electronic typesetting, remaining essentially unchanged. It was popularised in the 1960s with the release of Letraset sheets containing Lorem Ipsum passages, and more recently with desktop publishing software like Aldus PageMaker including versions of Lorem Ipsum.",
        "score": 50,
        "relevantStatus": false
    }
]